{
 "asr_id": "b3b4685fb6e1ce0c6be73009e3e0a488",
 "uid": "MoS2-b3b4685fb6e1",
 "__key_descriptions__": {
  "asr_id": "KVP: Material fingerprint",
  "uid": "KVP: Unique identifier"
 },
 "__asr_name__": "asr.database.material_fingerprint",
 "__creates__": {},
 "__params__": {},
 "__versions__": {
  "asr": "19.11.18-3dda2a001bd630f106d6f16d0db58fe635702290",
  "ase": "3.19.0b1-f30291ce5996f9e691582f07ec116333331e2514",
  "gpaw": "19.8.2b1-6ac6255b9a19ad6380d0fa4d69e5e98f4344dcc4"
 }
}