{
 "asr_id": "fc09a9e845e782d8bfc2530184f5cfa2",
 "uid": "MoS2-fc09a9e845e7",
 "__asr_name__": "asr.database.material_fingerprint",
 "__resources__": {
  "time": 0.005382537841796875,
  "ncores": 1
 },
 "__creates__": {},
 "__params__": {},
 "__versions__": {
  "asr": "0.3.2-f87f5f646ca3f907cd17fef586591b12d3492859",
  "ase": "3.20.1-9610c462e423a3d9f26d6121c88c8cde7b7e0f9c",
  "gpaw": "20.1.1b1-1f19e99d2ee42bc4df0bc8ff55ee3ecc9858b546"
 }
}