{
 "asr.relax": {
  "calculator": {
   "kpts": {
    "size": {
     "__ndarray__": [
      [
       3
      ],
      "int64",
      [
       14,
       14,
       1
      ]
     ]
    },
    "gamma": true
   },
   "name": "gpaw",
   "mode": {
    "name": "pw",
    "ecut": 800
   },
   "xc": "PBE",
   "basis": "dzp",
   "symmetry": {
    "symmorphic": false
   },
   "convergence": {
    "forces": 0.0001
   },
   "txt": "relax.txt",
   "occupations": {
    "name": "fermi-dirac",
    "width": 0.05
   },
   "charge": 0
  },
  "fixcell": true,
  "allow_symmetry_breaking": true,
  "fmax": 0.008
 },
 "__asr_name__": "asr.setup.params",
 "__resources__": {
  "time": 0.01637721061706543,
  "ncores": 40
 },
 "__creates__": {},
 "__params__": {
  "params": {
   "asr.relax": {
    "calculator": {
     "kpts": {
      "size": {
       "__ndarray__": [
        [
         3
        ],
        "int64",
        [
         14,
         14,
         1
        ]
       ]
      },
      "gamma": true
     },
     "null": null
    },
    "fixcell": true,
    "allow_symmetry_breaking": true,
    "fmax": 0.008
   }
  }
 },
 "__versions__": {
  "asr": "0.3.2-906541a3e29d0afae45d5b50c62dc6cbf295292b",
  "ase": "3.20.0b1-56263c969462d5fed63aa49c7edb71349f9e0192",
  "gpaw": "20.1.1b1-1f19e99d2ee42bc4df0bc8ff55ee3ecc9858b546"
 }
}