{
 "phase_c": {
  "__ndarray__": [
   [
    3
   ],
   "float64",
   [
    54.43992128401262,
    20.921381575479117,
    -2.3572147199766522e-14
   ]
  ]
 },
 "electronic_phase_c": {
  "__ndarray__": [
   [
    3
   ],
   "float64",
   [
    4.01493718689018,
    -4.530362932610712,
    -6.28318530717955
   ]
  ]
 },
 "atomic_phase_c": {
  "__ndarray__": [
   [
    3
   ],
   "float64",
   [
    50.42498409712244,
    25.45174450808983,
    81.68140899333463
   ]
  ]
 },
 "dipole_phase_c": {
  "__ndarray__": [
   [
    3
   ],
   "float64",
   [
    4.275072833585774,
    -4.924354636098429,
    -2.3572147199766522e-14
   ]
  ]
 },
 "dipole_v": {
  "__ndarray__": [
   [
    3
   ],
   "float64",
   [
    6.45184308660992,
    -4.083956214455901,
    -1.2851291570249675e-13
   ]
  ]
 },
 "__asr_name__": "asr.formalpolarization",
 "__resources__": {
  "time": 924.016016960144,
  "ncores": 40
 },
 "__creates__": {},
 "__params__": {
  "gpwname": "formalpol.gpw",
  "calculator": {
   "name": "gpaw",
   "mode": {
    "name": "pw",
    "ecut": 800
   },
   "xc": "PBE",
   "basis": "dzp",
   "kpts": {
    "density": 12.0
   },
   "occupations": {
    "name": "fermi-dirac",
    "width": 0.05
   },
   "symmetry": "off",
   "convergence": {
    "eigenstates": 1e-11,
    "density": 1e-07
   },
   "txt": "formalpol.txt",
   "charge": 0
  }
 },
 "__versions__": {
  "asr": "0.3.2-dd70005f2af485ced668ae28f1b31f5a6bd98290",
  "ase": "3.20.0b1-56263c969462d5fed63aa49c7edb71349f9e0192",
  "gpaw": "20.1.1b1-1f19e99d2ee42bc4df0bc8ff55ee3ecc9858b546"
 }
}