{"1": {
 "calculator": "gpaw",
 "calculator_parameters": {},
 "cell": {"array": {"__ndarray__": [[3, 3], "float64", [3.188080277936215, -0.015940401389681075, 0.0, -1.6078449315180923, 2.7689287106917564, 0.0, -2.027100536716133e-20, 1.0135502683580665e-22, 18.158273013181642]]}, "__ase_objtype__": "cell"},
 "ctime": 20.47544176991731,
 "dipole": {"__ndarray__": [[3], "float64", [-1.4528758879502189e-15, 8.03341603264153e-15, 9.92655418217529e-09]]},
 "energy": -21.3022594889721,
 "forces": {"__ndarray__": [[3, 3], "float64", [0.0, 0.0, 0.0, -0.006031516508697566, -0.0003491225882068783, -0.0019718114652106035, 0.006031516508697566, 0.0003491225882068783, 0.0019718114652106035]]},
 "mtime": 20.47544176991731,
 "numbers": {"__ndarray__": [[3], "int64", [42, 16, 16]]},
 "pbc": {"__ndarray__": [[3], "bool", [true, true, false]]},
 "positions": {"__ndarray__": [[3, 3], "float64", [-1.3313776198547415e-20, 6.357053233813868e-19, 9.079136507200642, 1.5968180895626227, 0.9123880035627282, 10.666570740268304, -0.01658274314450027, 1.8406003057393479, 7.491702273756046]]},
 "stress": {"__ndarray__": [[6], "float64", [-5.1373173876681734e-05, -5.352845565762532e-05, 0.00010245982221757559, 6.993554080654179e-06, 0.00011938812173779797, -0.001690280018755861]]},
 "unique_id": "5d188c2d2a7e9e37830105bc84c0e4a1",
 "user": "cmr"},
"ids": [1],
"nextid": 2}
