{
 "1": {
  "calculator": "unknown",
  "calculator_parameters": {},
  "cell": {
   "array": {
    "__ndarray__": [
     [
      3,
      3
     ],
     "float64",
     [
      3.188080277936215,
      -0.015940401389681075,
      0.0,
      -1.6078449315180923,
      2.7689287106917564,
      0.0,
      -2.027100536716133e-20,
      1.0135502683580665e-22,
      18.158273013181642
     ]
    ]
   },
   "__ase_objtype__": "cell"
  },
  "ctime": 19.82387591345877,
  "mtime": 19.82387591345877,
  "numbers": {
   "__ndarray__": [
    [
     3
    ],
    "int64",
    [
     42,
     16,
     16
    ]
   ]
  },
  "pbc": {
   "__ndarray__": [
    [
     3
    ],
    "bool",
    [
     true,
     true,
     false
    ]
   ]
  },
  "positions": {
   "__ndarray__": [
    [
     3,
     3
    ],
    "float64",
    [
     -1.3313776198547409e-20,
     6.357053233813868e-19,
     9.079136507200642,
     1.5894385414514456,
     0.9123493026374646,
     10.666425175207118,
     -0.009203195033323265,
     1.8406390066646103,
     7.491847838817223
    ]
   ]
  },
  "unique_id": "5a446748d25ac0e025d46057a523ce60",
  "user": "mogje"
 },
 "ids": {
  "__ndarray__": [
   [
    1
   ],
   "int64",
   [
    1
   ]
  ]
 },
 "nextid": 2
}