{
 "asr.relax": {
  "calculator": {
   "kpts": {
    "size": {
     "__ndarray__": [
      [
       3
      ],
      "int64",
      [
       14,
       14,
       1
      ]
     ]
    },
    "gamma": true
   },
   "name": "gpaw",
   "mode": {
    "name": "pw",
    "ecut": 800,
    "dedecut": "estimate"
   },
   "xc": "PBE",
   "basis": "dzp",
   "symmetry": {
    "symmorphic": false
   },
   "convergence": {
    "forces": 0.0001
   },
   "txt": "relax.txt",
   "occupations": {
    "name": "fermi-dirac",
    "width": 0.05
   },
   "charge": 0
  },
  "fixcell": true,
  "allow_symmetry_breaking": true
 },
 "__asr_name__": "asr.setup.params",
 "__creates__": {},
 "__params__": {
  "params": [
   "asr.relax:calculator",
   "{'kpts':{'size':[14,14,1],'gamma':True},...}",
   "asr.relax:fixcell",
   "True",
   "asr.relax:allow_symmetry_breaking",
   "True"
  ]
 },
 "__versions__": {
  "asr": "19.8.20-2099200bc84914162ef0ba83738698a274bb875f",
  "ase": "3.19.0b1-f30291ce5996f9e691582f07ec116333331e2514",
  "gpaw": "19.8.2b1-92fdd58b30e1cd4f79dcfc2703c65bcb6ee083af"
 }
}