{
 "asr_id": "667b24e4d2232a2195fae576533f445b",
 "uid": "MoS2-667b24e4d223",
 "__key_descriptions__": {
  "asr_id": "KVP: Material fingerprint",
  "uid": "KVP: Unique identifier"
 },
 "__asr_name__": "asr.database.material_fingerprint",
 "__creates__": {},
 "__params__": {},
 "__versions__": {
  "asr": "19.8.20-1c10b79a0d1a83358a93cad1c55ac6d4bcbbbb6c",
  "ase": "3.19.0b1-f30291ce5996f9e691582f07ec116333331e2514",
  "gpaw": "19.8.2b1-92fdd58b30e1cd4f79dcfc2703c65bcb6ee083af"
 }
}