{
 "asr_id": "7220cff56dcaf092e75f41118d61f8b7",
 "uid": "MoS2-7220cff56dca",
 "__key_descriptions__": {
  "asr_id": "KVP: Material fingerprint",
  "uid": "KVP: Unique identifier"
 },
 "__asr_name__": "asr.database.material_fingerprint",
 "__resources__": {
  "time": 0.037338972091674805,
  "ncores": 1
 },
 "__creates__": {},
 "__params__": {},
 "__versions__": {
  "asr": "0.3.2-906541a3e29d0afae45d5b50c62dc6cbf295292b",
  "ase": "3.20.0b1-56263c969462d5fed63aa49c7edb71349f9e0192",
  "gpaw": "20.1.1b1-1f19e99d2ee42bc4df0bc8ff55ee3ecc9858b546"
 }
}