{"1": {
 "cell": {"array": {"__ndarray__": [[3, 3], "float64", [3.1840664646845926, 0.0, 0.0, -1.5920332323422963, 2.757482445754964, 0.0, 0.0, 0.0, 18.12711264635152]]}, "__ase_objtype__": "cell"},
 "ctime": 20.65850686197597,
 "mtime": 20.65850686197597,
 "numbers": {"__ndarray__": [[3], "int64", [42, 16, 16]]},
 "pbc": {"__ndarray__": [[3], "bool", [true, true, false]]},
 "positions": {"__ndarray__": [[3, 3], "float64", [-0.01, 0.0, 9.06355632317576, 1.5920332323422963, 0.9191608152516546, 10.62711264635152, 1.5920332323422963, 0.9191608152516546, 7.5]]},
 "unique_id": "126faa3e87a9a670b666b6c470b4efc2",
 "user": "cmr"},
"ids": [1],
"nextid": 2}
