{
 "object_id": "asr.bader::Result",
 "constructor": "asr.bader::Result",
 "args": [],
 "kwargs": {
  "data": {
   "bader_charges": {
    "__ndarray__": [
     [
      3
     ],
     "float64",
     [
      1.2805219999999995,
      -0.6402380000000001,
      -0.6402380000000001
     ]
    ]
   },
   "sym_a": [
    "Mo",
    "S",
    "S"
   ]
  },
  "metadata": {
   "asr_name": "asr.bader",
   "resources": {
    "time": 12.926369905471802,
    "ncores": 1,
    "tstart": 1604922502.493392,
    "tend": 1604922515.419762
   },
   "params": {
    "grid_spacing": 0.05
   },
   "code_versions": {
    "asr": "0.4.1-a721c2b471f8bddd5802915a8fd9406ccdbfb25a",
    "ase": "3.21.0b1-8a83b7f6a6fd68b95b9f542d7c054fa7204d764a",
    "gpaw": "20.10.1b1-7ff8d570c9d25f2af1c40c00271000e3ab505f1c"
   },
   "creates": {}
  },
  "strict": true
 }
}